2018-08-14T12:12:06+00:00 CRITICAL Uncaught Error: Call to undefined function get_request_parameter() in /var/www/html/wp-content/plugins/woocommerce/templates/checkout/payment.php:32
Stack trace:
#0 /var/www/html/wp-content/plugins/woocommerce/includes/wc-core-functions.php(210): include()
#1 /var/www/html/wp-content/plugins/woocommerce/includes/wc-template-functions.php(2099): wc_get_template('checkout/paymen...', Array)
#2 /var/www/html/wp-includes/class-wp-hook.php(286): woocommerce_checkout_payment('')
#3 /var/www/html/wp-includes/class-wp-hook.php(310): WP_Hook->apply_filters(NULL, Array)
#4 /var/www/html/wp-includes/plugin.php(453): WP_Hook->do_action(Array)
#5 /var/www/html/wp-content/plugins/woocommerce/templates/checkout/form-checkout.php(59): do_action('woocommerce_che...')
#6 /var/www/html/wp-content/plugins/woocommerce/includes/wc-core-functions.php(210): include('/var/www/html/w...')
#7 /var/www/html/wp-content/plugins/woocommerce-one-page-shopping/templates/frontpage/checkout.php(9): wc_get_template('checkout/form-c...', Array)


2018-08-14T12:12:47+00:00 CRITICAL Uncaught Error: Call to undefined function get_request_parameter() in /var/www/html/wp-content/plugins/woocommerce/templates/checkout/payment.php:32
Stack trace:
#0 /var/www/html/wp-content/plugins/woocommerce/includes/wc-core-functions.php(210): include()
#1 /var/www/html/wp-content/plugins/woocommerce/includes/wc-template-functions.php(2099): wc_get_template('checkout/paymen...', Array)
#2 /var/www/html/wp-includes/class-wp-hook.php(286): woocommerce_checkout_payment('')
#3 /var/www/html/wp-includes/class-wp-hook.php(310): WP_Hook->apply_filters(NULL, Array)
#4 /var/www/html/wp-includes/plugin.php(453): WP_Hook->do_action(Array)
#5 /var/www/html/wp-content/plugins/woocommerce/templates/checkout/form-checkout.php(59): do_action('woocommerce_che...')
#6 /var/www/html/wp-content/plugins/woocommerce/includes/wc-core-functions.php(210): include('/var/www/html/w...')
#7 /var/www/html/wp-content/plugins/woocommerce-one-page-shopping/templates/frontpage/checkout.php(9): wc_get_template('checkout/form-c...', Array)


2018-08-14T19:28:18+00:00 CRITICAL Uncaught Error: Call to undefined function show_sub_affiliates() in /var/www/html/wp-content/plugins/affiliatewp-multi-level-marketing/includes/shortcodes.php:87
Stack trace:
#0 /var/www/html/wp-includes/shortcodes.php(319): affwp_sub_affiliates_shortcode('', '', 'sub_affiliates')
#1 [internal function]: do_shortcode_tag(Array)
#2 /var/www/html/wp-includes/shortcodes.php(197): preg_replace_callback('/\\[(\\[?)(sub_af...', 'do_shortcode_ta...', '[sub_affiliates...')
#3 /var/www/html/wp-content/plugins/tabs-responsive/template/content.php(120): do_shortcode('[sub_affiliates...')
#4 /var/www/html/wp-content/plugins/tabs-responsive/template/shortcode.php(13): require('/var/www/html/w...')
#5 /var/www/html/wp-includes/shortcodes.php(319): TABS_R_ShortCode(Array, '', 'TABS_R')
#6 [internal function]: do_shortcode_tag(Array)
#7 /var/www/html/wp-includes/shortcodes.php(197): preg_replace_callback('/\\[(\\[?)(TABS_R...', 'do_shortcode_ta...', '<p class="priva...')
#8 /var/www/html/wp-content/plugins/private-content/pr

2018-08-14T19:28:21+00:00 CRITICAL Uncaught Error: Call to undefined function show_sub_affiliates() in /var/www/html/wp-content/plugins/affiliatewp-multi-level-marketing/includes/shortcodes.php:87
Stack trace:
#0 /var/www/html/wp-includes/shortcodes.php(319): affwp_sub_affiliates_shortcode('', '', 'sub_affiliates')
#1 [internal function]: do_shortcode_tag(Array)
#2 /var/www/html/wp-includes/shortcodes.php(197): preg_replace_callback('/\\[(\\[?)(sub_af...', 'do_shortcode_ta...', '[sub_affiliates...')
#3 /var/www/html/wp-content/plugins/tabs-responsive/template/content.php(120): do_shortcode('[sub_affiliates...')
#4 /var/www/html/wp-content/plugins/tabs-responsive/template/shortcode.php(13): require('/var/www/html/w...')
#5 /var/www/html/wp-includes/shortcodes.php(319): TABS_R_ShortCode(Array, '', 'TABS_R')
#6 [internal function]: do_shortcode_tag(Array)
#7 /var/www/html/wp-includes/shortcodes.php(197): preg_replace_callback('/\\[(\\[?)(TABS_R...', 'do_shortcode_ta...', '<p class="priva...')
#8 /var/www/html/wp-content/plugins/private-content/pr

